<?xml version="1.0" encoding="UTF-8" standalone="no"?>
<!-- Created with Inkscape (http://www.inkscape.org/) -->

<svg
   xmlns:dc="http://purl.org/dc/elements/1.1/"
   xmlns:cc="http://creativecommons.org/ns#"
   xmlns:rdf="http://www.w3.org/1999/02/22-rdf-syntax-ns#"
   xmlns:svg="http://www.w3.org/2000/svg"
   xmlns="http://www.w3.org/2000/svg"
   xmlns:sodipodi="http://sodipodi.sourceforge.net/DTD/sodipodi-0.dtd"
   xmlns:inkscape="http://www.inkscape.org/namespaces/inkscape"
   width="100mm"
   height="32.830521mm"
   viewBox="0 0 100 32.830521"
   version="1.1"
   id="svg3137"
   inkscape:version="0.92.2 2405546, 2018-03-11"
   sodipodi:docname="cisadmin.svg">
  <defs
     id="defs3131" />
  <sodipodi:namedview
     id="base"
     pagecolor="#ffffff"
     bordercolor="#666666"
     borderopacity="1.0"
     inkscape:pageopacity="0.0"
     inkscape:pageshadow="2"
     inkscape:zoom="1.979899"
     inkscape:cx="312.6634"
     inkscape:cy="27.818696"
     inkscape:document-units="mm"
     inkscape:current-layer="g1095"
     showgrid="false"
     fit-margin-top="0"
     fit-margin-left="0"
     fit-margin-right="0"
     fit-margin-bottom="0"
     inkscape:window-width="1280"
     inkscape:window-height="758"
     inkscape:window-x="0"
     inkscape:window-y="42"
     inkscape:window-maximized="0" />
  <metadata
     id="metadata3134">
    <rdf:RDF>
      <cc:Work
         rdf:about="">
        <dc:format>image/svg+xml</dc:format>
        <dc:type
           rdf:resource="http://purl.org/dc/dcmitype/StillImage" />
        <dc:title></dc:title>
      </cc:Work>
    </rdf:RDF>
  </metadata>
  <g
     inkscape:label="Capa 1"
     inkscape:groupmode="layer"
     id="layer1"
     transform="translate(337.1544,-125.07424)">
    <g
       id="g3716">
      <path
         inkscape:connector-curvature="0"
         id="path1115"
         d="m -337.1444,136.83984 11.59929,-11.7556 88.39071,-0.01 -0.01,21.06482 -11.59929,11.7557 -88.39071,0.01 z"
         style="fill:#ffffff;stroke:none;stroke-width:0.03755498px;stroke-linecap:butt;stroke-linejoin:miter;stroke-opacity:1" />
      <g
         transform="matrix(0.14193993,0,0,0.14193993,-307.54309,126.47859)"
         id="g1095">
        <g
           id="g3770">
          <rect
             style="opacity:1;fill:#ff0000;fill-opacity:1;stroke:none;stroke-width:0.36486399;stroke-miterlimit:4;stroke-dasharray:none;stroke-opacity:0.99302326"
             id="rect829"
             width="597.20239"
             height="114.90475"
             x="-114.22614"
             y="6.3809628" />
          <rect
             y="27.547628"
             x="-130.10114"
             height="114.90475"
             width="597.20239"
             id="rect827"
             style="opacity:1;fill:#ff6600;fill-opacity:1;stroke:none;stroke-width:0.36486399;stroke-miterlimit:4;stroke-dasharray:none;stroke-opacity:0.99302326" />
          <rect
             style="opacity:1;fill:#ffff00;fill-opacity:1;stroke:none;stroke-width:0.36486399;stroke-miterlimit:4;stroke-dasharray:none;stroke-opacity:0.99302326"
             id="rect825"
             width="597.20239"
             height="114.90475"
             x="-145.97615"
             y="43.42263" />
          <rect
             y="59.297634"
             x="-161.85117"
             height="114.90475"
             width="597.20239"
             id="rect823"
             style="opacity:1;fill:#008000;fill-opacity:1;stroke:none;stroke-width:0.36486399;stroke-miterlimit:4;stroke-dasharray:none;stroke-opacity:0.99302326" />
          <rect
             style="opacity:1;fill:#0000ff;fill-opacity:1;stroke:none;stroke-width:0.36486399;stroke-miterlimit:4;stroke-dasharray:none;stroke-opacity:0.99302326"
             id="rect821"
             width="597.20239"
             height="114.90475"
             x="-177.72618"
             y="75.17263" />
          <path
             id="rect819"
             d="M -193.6012,91.047623 H 403.6012 V 205.95237 h -597.2024 z"
             style="opacity:1;fill:#800080;fill-opacity:1;stroke:none;stroke-width:0.36486399;stroke-miterlimit:4;stroke-dasharray:none;stroke-opacity:0.99302326" />
          <g
             id="text817"
             style="font-style:normal;font-variant:normal;font-weight:normal;font-stretch:normal;font-size:84.86400604px;line-height:1.25;font-family:'League Gothic';-inkscape-font-specification:'League Gothic';letter-spacing:0px;word-spacing:0px;fill:#ffffff;fill-opacity:1;stroke:none;stroke-width:2.12160015"
             aria-label="cisadmin">
            <path
               id="path3738"
               style="font-style:normal;font-variant:normal;font-weight:normal;font-stretch:normal;font-family:'Monkey Island 1990';-inkscape-font-specification:'Monkey Island 1990, ';fill:#ffffff;stroke-width:2.12160015"
               d="m -165.50401,132.588 h 42.432 v 10.608 h -31.824 v 31.82401 h 31.824 v 10.608 h -42.432 v -10.608 h -10.608 V 143.196 h 10.608 z" />
            <path
               id="path3740"
               style="font-style:normal;font-variant:normal;font-weight:normal;font-stretch:normal;font-family:'Monkey Island 1990';-inkscape-font-specification:'Monkey Island 1990, ';fill:#ffffff;stroke-width:2.12160015"
               d="m -91.248011,121.98 h 21.216002 v 10.608 h -21.216002 z m -10.607999,21.216 h 31.824001 v 31.82401 h 10.608001 v 10.608 h -42.432002 v -10.608 h 10.607999 V 153.804 h -10.607999 z" />
            <path
               id="path3742"
               style="font-style:normal;font-variant:normal;font-weight:normal;font-stretch:normal;font-family:'Monkey Island 1990';-inkscape-font-specification:'Monkey Island 1990, ';fill:#ffffff;stroke-width:2.12160015"
               d="m -38.208009,132.588 h 53.040004 v 10.608 h -42.432003 v 10.608 H 4.2239943 v 10.608 H 14.831995 v 10.60801 H 4.2239943 v 10.608 H -48.81601 v -10.608 H -6.3840065 V 164.412 H -38.208009 V 153.804 H -48.81601 v -10.608 h 10.608001 z" />
            <path
               id="path3744"
               style="font-style:normal;font-variant:normal;font-weight:normal;font-stretch:normal;font-family:'Monkey Island 1990';-inkscape-font-specification:'Monkey Island 1990, ';fill:#ffffff;stroke-width:2.12160015"
               d="m 36.047988,132.588 h 42.432003 v 10.608 h 10.608001 v 42.43201 H 36.047988 v -10.608 H 25.439987 V 164.412 H 36.047988 V 153.804 H 67.87199 V 143.196 H 36.047988 Z m 10.608001,31.824 v 10.60801 H 67.87199 V 164.412 Z" />
            <path
               id="path3746"
               style="font-style:normal;font-variant:normal;font-weight:normal;font-stretch:normal;font-family:'Monkey Island 1990';-inkscape-font-specification:'Monkey Island 1990, ';fill:#ffffff;stroke-width:2.12160015"
               d="m 142.128,111.372 h 21.216 v 74.25601 h -53.04 v -10.608 H 99.695999 V 143.196 H 110.304 v -10.608 h 31.824 z m -21.216,31.824 v 31.82401 h 21.216 V 143.196 Z" />
            <path
               id="path3748"
               style="font-style:normal;font-variant:normal;font-weight:normal;font-stretch:normal;font-family:'Monkey Island 1990';-inkscape-font-specification:'Monkey Island 1990, ';fill:#ffffff;stroke-width:2.12160015"
               d="m 173.95201,132.588 h 21.216 v 10.608 h 21.216 v -10.608 h 21.21601 v 10.608 h 10.608 v 42.43201 H 226.99201 V 164.412 h -10.608 v 10.60801 h -10.608 V 164.412 h -10.608 v 21.21601 h -21.216 z" />
            <path
               id="path3750"
               style="font-style:normal;font-variant:normal;font-weight:normal;font-stretch:normal;font-family:'Monkey Island 1990';-inkscape-font-specification:'Monkey Island 1990, ';fill:#ffffff;stroke-width:2.12160015"
               d="m 280.03203,121.98 h 21.216 v 10.608 h -21.216 z m -10.608,21.216 h 31.824 v 31.82401 h 10.608 v 10.608 h -42.432 v -10.608 h 10.608 V 153.804 h -10.608 z" />
            <path
               id="path3752"
               style="font-style:normal;font-variant:normal;font-weight:normal;font-stretch:normal;font-family:'Monkey Island 1990';-inkscape-font-specification:'Monkey Island 1990, ';fill:#ffffff;stroke-width:2.12160015"
               d="m 322.464,132.588 h 53.04001 v 10.608 h 10.608 v 42.43201 h -21.216 V 143.196 h -21.216 v 42.43201 H 322.464 Z" />
          </g>
        </g>
      </g>
    </g>
  </g>
</svg>
